{
  "sites": [
    {
      "key": "csp_365",
      "name": "🌎365┃仅供学习参考┃测试",
      "type": 3,
      "changeable": 1,
      "playerType": 1,
      "api": "./lib/drpy2.min.js",
      "ext": "./lib/1689221387.json"
    },
    {
      "key": "drpy_乐猪",
      "name": "🐷乐猪┃影视┃测试",
      "type": 3,
      "changeable": 1,
      "api": "./lib/drpy2.min.js",
      "ext": "./lib/1689201363.json"
    },
    {
      "key": "csp_Kunyu77",
      "name": "🎰七七┃不得违法用途┃测试",
      "type": 3,
      "changeable": 1,
      "api": "csp_Kunyu77",
      "jar": "https://files.zohopublic.com.cn/public/workdrive-public/download/uyv0t678c488189af47bb91dc108484d17431"
    },
    {
      "key": "cjzy_快看",
      "name": "👁️‍🗨️勿相信广告┃仅供参考学习",
      "type": 1,
      "api": "https://kuaikan-api.com/api.php/provide/vod/from/kuaikan/",
      "playUrl": "",
      "changeable": 1,
      "playerType": 2,
      "categories": [
        "国产剧",
        "港台剧",
        "国产动漫",
        "日韩剧",
        "欧美剧",
        "海外剧",
        "动作片",
        "爱情片",
        "剧情片",
        "科幻片",
        "奇幻片",
        "战争片",
        "犯罪片",
        "恐怖片",
        "悬疑片",
        "惊悚片",
        "冒险片"
      ]
    },
    {
      "key": "cjzy_非凡",
      "name": "🌋非凡┃影视┃测试",
      "type": 1,
      "changeable": 1,
      "playerType": 2,
      "api": "http://cj.ffzyapi.com/api.php/provide/vod/from/ffm3u8/?ac=list",
      "m3u8ads": "hd.youyhn.com",
      "playUrl": "json:http://api.8kvod.com:5566/api/?key=nD30Uc4sOUcyyuNpcP&url=",
      "categories": [
        "国产剧",
        "国产动漫",
        "香港剧",
        "台湾剧",
        "大陆综艺",
        "港台综艺",
        "日韩动漫",
        "韩国剧",
        "日本剧",
        "电影片",
        "连续剧",
        "综艺片",
        "动漫片",
        "动作片",
        "喜剧片",
        "爱情片",
        "科幻片",
        "恐怖片",
        "剧情片",
        "战争片",
        "欧美剧",
        "记录片",
        "海外剧",
        "泰国剧",
        "日韩综艺",
        "欧美综艺",
        "欧美动漫",
        "港台动漫",
        "海外动漫"
      ]
    },
    {
      "key": "cjzy_量子",
      "name": "🌋量子┃影视┃测试",
      "type": 1,
      "changeable": 1,
      "playerType": 2,
      "api": "https://cj.lziapi.com/api.php/provide/vod/from/lzm3u8/?ac=list",
      "m3u8ads": "hd.youyhn.com",
      "playUrl": "json:http://api.8kvod.com:5566/api/?key=nD30Uc4sOUcyyuNpcP&url=",
      "categories": [
        "国产剧",
        "国产动漫",
        "香港剧",
        "台湾剧",
        "大陆综艺",
        "港台综艺",
        "日韩动漫",
        "韩国剧",
        "日本剧",
        "电影片",
        "连续剧",
        "综艺片",
        "动漫片",
        "动作片",
        "喜剧片",
        "爱情片",
        "科幻片",
        "恐怖片",
        "剧情片",
        "战争片",
        "欧美剧",
        "记录片",
        "海外剧",
        "泰国剧",
        "日韩综艺",
        "欧美综艺",
        "欧美动漫",
        "港台动漫",
        "海外动漫"
      ]
    },
    {
      "key": "app_暴风资源",
      "name": "🌀暴风┃影视┃测试",
      "type": 1,
      "api": "http://by.bfzyapi.com/api.php/provide/vod/?wd=",
      "playUrl": "",
      "categories": [
        "国产剧",
        "国产动漫",
        "香港剧",
        "台湾剧",
        "大陆综艺",
        "港台综艺",
        "日韩动漫",
        "韩国剧",
        "日本剧",
        "电影片",
        "连续剧",
        "综艺片",
        "动漫片",
        "动作片",
        "喜剧片",
        "爱情片",
        "科幻片",
        "恐怖片",
        "剧情片",
        "战争片",
        "欧美剧",
        "记录片",
        "海外剧",
        "泰国剧",
        "日韩综艺",
        "欧美综艺",
        "欧美动漫",
        "港台动漫",
        "海外动漫"
      ]
    },
    {
      "key": "apv2_优质",
      "name": "📅天天┃影视┃测试",
      "type": 1,
      "changeable": 1,
      "api": "https://api.1080zyku.com/inc/apijson.php",
      "playUrl": "",
      "categories": [
        "国产剧",
        "香港剧",
        "台湾剧",
        "国产动漫",
        "日韩剧",
        "欧美剧",
        "海外剧",
        "动作片",
        "爱情片",
        "剧情片",
        "科幻片",
        "奇幻片",
        "战争片",
        "犯罪片",
        "恐怖片",
        "悬疑片",
        "惊悚片",
        "冒险片"
      ]
    },
    {
      "key": "drpy_哔哩影视",
      "name": "👨‍💻哔哩┃影视┃测试",
      "type": 3,
      "api": "./lib/drpy2.min.js",
      "ext": "./lib/哔哩影视.js"
    },
    {
      "key": "drpy_直播转点播",
      "name": "📺电视┃直播┃测试",
      "type": 3,
      "playerType": 1,
      "api": "./lib/直播转点播.js",
      "ext": "./lib/电视直播.json"
    },
    {
      "key": "直播转点播",
      "name": "📻电台┃之声┃测试",
      "type": 3,
      "playerType": 1,
      "api": "./lib/直播转点播.js",
      "ext": "./lib/1688703636.json"
    },
    {
      "key": "py_央视片库",
      "name": "📺央视片库┃测试PY需软件支持",
      "type": 3,
      "api": "py_cctv",
      "ext": "./lib/央视片库.py"
    },
    {
      "key": "py_央视节目",
      "name": "🇨🇳央视节目┃测试PY需软件支持",
      "type": 3,
      "api": "py_cctv",
      "ext": "./lib/央视节目.py"
    },
    {
      "key": "drpy_JustLive",
      "name": "⚽直播 | 测试JustLive",
      "type": 3,
      "searchable": 0,
      "api": "./lib/drpy.min.js",
      "changeable": 0,
      "ext": "./lib/JRKAN直播.js"
    },
    {
      "key": "drpy_小腾",
      "name": "🐧小Q┃影视┃测试",
      "type": 3,
      "api": "./lib/drpy2.min.js",
      "ext": "./lib/腾云驾雾.js"
    },
    {
      "key": "drpy_异果",
      "name": "🥝小爱┃影视┃测试",
      "type": 3,
      "api": "./lib/drpy2.min.js",
      "ext": "./lib/奇珍异兽.js"
    },
    {
      "key": "drpy_无果",
      "name": "🏝忙果┃影视┃测试",
      "type": 3,
      "playerType": 1,
      "api": "./lib/drpy2.min.js",
      "ext": "./lib/百忙无果.js"
    },
    {
      "key": "drpy_U酷",
      "name": "🆒小酷┃影视┃测试",
      "type": 3,
      "api": "./lib/drpy2.min.js",
      "ext": "./lib/U酷.js"
    },
    {
      "key": "drpy_酷奇",
      "name": "🎵酷奇┃MV┃测试",
      "type": 3,
      "searchable": 0,
      "api": "./lib/drpy.min.js",
      "ext": "./lib/酷奇MV.js"
    },
    {
      "key": "drpy_A8音乐",
      "name": "🎵A8┃MV┃测试",
      "type": 3,
      "searchable": 0,
      "api": "./lib/drpy2.min.js",
      "ext": "./lib/A8音乐.js"
    },
    {
      "key": "歌手_MV",
      "name": "🎵歌手┃MV┃测试",
      "type": 1,
      "api": "https://tvbox-mv--leosam2048.repl.co/mv/vod",
      "searchable": 0
    },
    {
      "key": "csp_随缘测试将不会有阿里系",
      "name": "🛫测试┃不得商业用途",
      "type": 0,
      "api": "",
      "searchable": 0,
      "quickSearch": 0,
      "filterable": 0
    }
  ],
  "parses": [
    {
      "name": "Json聚合",
      "type": 3,
      "url": "Demo"
    },
    {
      "name": "Web聚合",
      "type": 3,
      "url": "Web"
    },
    {
      "name": "777",
      "type": 0,
      "url": "https://jx.777jiexi.com/player/?url=",
      "ext": {
        "flag": [
          "qq",
          "腾讯",
          "qiyi",
          "爱奇艺",
          "奇艺",
          "youku",
          "优酷",
          "mgtv",
          "芒果",
          "letv",
          "乐视",
          "pptv",
          "PPTV",
          "sohu",
          "bilibili",
          "哔哩哔哩",
          "哔哩"
        ]
      }
    },
    {
      "name": "全民",
      "url": "http://api.wpsseo.cn/?v=",
      "type": 0,
      "ext": {
        "flag": [
          "qiyi",
          "imgo",
          "爱奇艺",
          "奇艺",
          "qq",
          "腾讯",
          "youku",
          "优酷",
          "pptv",
          "PPTV",
          "letv",
          "乐视",
          "leshi",
          "bilibili",
          "哔哩哔哩",
          "哔哩",
          "mgtv",
          "芒果",
          "sohu",
          "xigua",
          "fun",
          "风行"
        ],
        "header": {
          "User-Agent": "Mozilla/5.0"
        }
      },
      "header": {
        "User-Agent": "Mozilla/5.0"
      }
    },
    {
      "name": "pand",
      "type": 1,
      "url": "http://pandown.pro/app/kkdy.php?url=",
      "ext": {
        "flag": [
          "qq",
          "腾讯",
          "qiyi",
          "爱奇艺",
          "奇艺",
          "youku",
          "优酷",
          "sohu",
          "搜狐",
          "letv",
          "乐视",
          "mgtv",
          "芒果",
          "rx",
          "ltnb",
          "bilibili",
          "1905",
          "xigua"
        ]
      }
    },
    {
      "name": "小书",
      "type": 1,
      "url": "http://27.124.4.42:4567/jhjson/ceshi.php?url=",
      "ext": {
        "flag": [
          "qq",
          "腾讯",
          "qiyi",
          "爱奇艺",
          "奇艺",
          "youku",
          "优酷",
          "mgtv",
          "芒果",
          "letv",
          "乐视",
          "pptv",
          "PPTV",
          "sohu",
          "bilibili",
          "哔哩哔哩",
          "哔哩"
        ],
        "header": {
          "User-Agent": "okhttp/4.1.0"
        }
      }
    },
    {
      "name": "255",
      "url": "https://jx.255tv.tk/api/?key=S6kQHaE1gVEY5KAv8L&url=",
      "type": 1,
      "ext": {
        "flag": [
          "qiyi",
          "imgo",
          "爱奇艺",
          "奇艺",
          "qq",
          "腾讯",
          "youku",
          "优酷",
          "pptv",
          "PPTV",
          "letv",
          "乐视",
          "leshi",
          "bilibili",
          "哔哩哔哩",
          "哔哩",
          "mgtv",
          "芒果",
          "sohu",
          "xigua",
          "fun",
          "风行"
        ],
        "header": {
          "User-Agent": "LuaSocket 3.0-rc1"
        }
      },
      "header": {
        "User-Agent": "LuaSocket 3.0-rc1"
      }
    },
    {
      "name": "78",
      "type": 1,
      "url": "http://api.8kvod.com:5566/api/?type=ys&key=nD30Uc4sOUcyyuNpcP&url=",
      "ext": {
        "flag": [
          "qq",
          "腾讯",
          "qiyi",
          "爱奇艺",
          "奇艺",
          "youku",
          "优酷",
          "mgtv",
          "芒果",
          "letv",
          "乐视",
          "pptv",
          "PPTV",
          "sohu",
          "bilibili",
          "哔哩哔哩",
          "哔哩"
        ],
        "header": {
          "User-Agent": "okhttp/3.12.12"
        }
      }
    },
    {
      "name": "饭团",
      "type": 0,
      "url": "https://www.fantuantva.com/jiexi/jiexi-gf/?url=",
      "ext": {
        "flag": [
          "qq",
          "qiyi",
          "youku",
          "sohu",
          "letv",
          "imgo",
          "mgtv",
          "bilibili",
          "xigua"
        ]
      }
    },
    {
      "name": "88",
      "type": 0,
      "url": "http://aabbcc.work:14565/?url=",
      "ext": {
        "flag": [
          "qq",
          "qiyi",
          "youku",
          "sohu",
          "letv",
          "imgo",
          "mgtv",
          "bilibili",
          "xigua"
        ],
        "header": {
          "User-Agent": "Mozilla/5.0 AppleWebKit/605.1.15 Version/13.0.3 Mobile/15E148 Safari/604.1",
          "Referer": "http://aabbcc.work:5478/"
        }
      }
    },
    {
      "name": "爱哭",
      "type": 0,
      "url": "https://jx.zhanlangbu.com/?url="
    },
    {
      "name": "jkk",
      "type": 0,
      "url": "https://kk.bcyingshi.ink/player/?url="
    },
    {
      "name": "稳定",
      "type": 0,
      "url": "https://jx.bozrc.com:4433/player/?url="
    },
    {
      "name": "懒懒",
      "type": 0,
      "url": "https://vip.lianfaka.com/vip/?url=",
      "ext": {
        "flag": [
          "qq",
          "qiyi",
          "youku",
          "sohu",
          "letv",
          "imgo",
          "mgtv",
          "bilibili",
          "xigua"
        ],
        "header": {
          "User-Agent": "Mozilla/5.0 AppleWebKit/605.1.15 Version/13.0.3 Mobile/15E148 Safari/604.1",
          "Referer": "https://www.dy6g.com/"
        }
      }
    },
    {
      "name": "7",
      "type": 0,
      "url": "https://jx.yparse.com/index.php?url="
    },
    {
      "name": "json",
      "type": 0,
      "url": "https://jx.jsonplayer.com/player/?url="
    },
    {
      "name": "虾米",
      "type": 0,
      "url": "https://jx.xmflv.com/?url="
    },
    {
      "name": "虾米dm",
      "type": 0,
      "url": "https://dm.xmflv.com:4433/?url="
    }
  ],
  "flags": [
    "youku",
    "qq",
    "iqiyi",
    "qiyi",
    "letv",
    "sohu",
    "tudou",
    "pptv",
    "mgtv",
    "wasu",
    "bilibili"
  ],
  "spider": "./js.jar",
  "wallpaper": "http://www.kf666888.cn/api/tvbox/img",
  "lives": [
    {
      "name": "live",
      "type": 0,
      "url": "./lib/1688845072.txt",
      "epg": "https://epg.112114.xyz/?ch={name}&date={date}",
      "logo": "https://epg.112114.xyz/logo/{name}.png",
      "ua": "okhttp/3.12.13"
    }
  ],
  "ijk": [
    {
      "group": "软解码",
      "options": [
        {
          "category": 4,
          "name": "opensles",
          "value": "0"
        },
        {
          "category": 1,
          "name": "fflags",
          "value": "fastseek"
        },
        {
          "category": 4,
          "name": "framedrop",
          "value": "1"
        },
        {
          "category": 4,
          "name": "enable-accurate-seek",
          "value": "0"
        },
        {
          "category": 4,
          "name": "start-on-prepared",
          "value": "1"
        },
        {
          "category": 1,
          "name": "http-detect-range-support",
          "value": "0"
        },
        {
          "category": 4,
          "name": "mediacodec-handle-resolution-change",
          "value": "0"
        },
        {
          "category": 2,
          "name": "skip_loop_filter",
          "value": "48"
        },
        {
          "category": 4,
          "name": "reconnect",
          "value": "1"
        },
        {
          "category": 4,
          "name": "overlay-format",
          "value": "842225234"
        },
        {
          "category": 4,
          "name": "mediacodec",
          "value": "0"
        },
        {
          "category": 4,
          "name": "mediacodec-auto-rotate",
          "value": "0"
        },
        {
          "category": 4,
          "name": "soundtouch",
          "value": "1"
        },
        {
          "category": 4,
          "name": "mediacodec-hevc",
          "value": "0"
        },
        {
          "category": 1,
          "name": "dns_cache_timeout",
          "value": "600000000"
        }
      ]
    },
    {
      "group": "硬解码",
      "options": [
        {
          "category": 4,
          "name": "opensles",
          "value": "0"
        },
        {
          "category": 1,
          "name": "fflags",
          "value": "fastseek"
        },
        {
          "category": 4,
          "name": "framedrop",
          "value": "1"
        },
        {
          "category": 4,
          "name": "enable-accurate-seek",
          "value": "0"
        },
        {
          "category": 4,
          "name": "start-on-prepared",
          "value": "1"
        },
        {
          "category": 1,
          "name": "http-detect-range-support",
          "value": "0"
        },
        {
          "category": 4,
          "name": "mediacodec-handle-resolution-change",
          "value": "1"
        },
        {
          "category": 2,
          "name": "skip_loop_filter",
          "value": "48"
        },
        {
          "category": 4,
          "name": "reconnect",
          "value": "1"
        },
        {
          "category": 4,
          "name": "overlay-format",
          "value": "842225234"
        },
        {
          "category": 4,
          "name": "mediacodec",
          "value": "1"
        },
        {
          "category": 4,
          "name": "mediacodec-auto-rotate",
          "value": "1"
        },
        {
          "category": 4,
          "name": "soundtouch",
          "value": "1"
        },
        {
          "category": 4,
          "name": "mediacodec-hevc",
          "value": "1"
        },
        {
          "category": 1,
          "name": "dns_cache_timeout",
          "value": "600000000"
        }
      ]
    }
  ],
  "ads": [
    "wan.51img1.com",
    "iqiyi.hbuioo.com",
    "vip.ffzyad.com",
    "https://lf1-cdn-tos.bytegoofy.com/obj/tos-cn-i-dy/455ccf9e8ae744378118e4bd289288dd"
  ]
}