{
    "主页url":"https://www.nkvod.com/",
    
    "数组":"<a&&module-poster-item-info\"",
    
    "图片":"data-original=\"&&\"",
    
    "链接":"href=\"&&\"",

    "搜索url":"https://www.nkvod.com/pian/-------------.html?wd={wd}",
    
    "搜索数组":"module-card-item-class\">&&</a>",
    
    "搜索标题":"alt=\"&&\"",
    
    "搜索副标题":"module-item-note\">&&</div>",

    "搜索图片": "http://xzam.cn:66/1.jpg",
    
    "搜索链接":"href=\"&&\"",
    
    "线路数组":"data-dropdown-value=&&</div>",
    
    "线路标题":"<span>&&</small>[替换:</span><small>>>共]+集",
    
    "播放数组":"module-play-list-base\">&&</div>",
    
    "播放标题":"<span>&&</span>",
    
    "播放列表":"<a&&</a>",
    
    "分类url":"https://www.nkvod.com/show/{cateId}--{by}------{catePg}---{year}.html",
    
    "分类":"电影$1#电视剧$2#动漫$4"
    
}
    
    
